id	alt_transaction_no	amount	enrollment_id	from_enrollment_id	type	status	transaction_time	processed_time	realized_time	reference_no	bank_name	branch_name	transactor_type	transactor_id	notes
1	DEM10200001	15880	2		Cash	New	"2019-01-01 11:00:00"				KVB	Aurangavbad	"App\Employee"	2
2	DEM10200002	15880	2		Cash	Realized	"2019-02-01 11:00:00"	"2019-02-01 11:00:00"	"2019-02-01 11:00:00"		KVB	Aurangavbad	"App\Employee"	2
3	DEM10200003	15880	2		Cash	Realized	"2019-03-01 11:00:01"	"2019-03-01 11:00:01"	"2019-03-01 11:00:01"		KVB	Aurangavbad	"App\Employee"	2
4	DEM10200004	15880	2		Cash	New	"2019-04-01 11:00:01"				KVB	Aurangavbad	"App\Employee"	2
5	DEM10200005	7940	2		Cash	Realized	"2019-05-01 11:00:01"	"2019-05-01 11:00:01"	"2019-05-01 11:00:01"		KVB	Aurangavbad	"App\Employee"	2
6	DEM10200006	7940	2		Cash	Realized	"2019-06-01 11:00:02"	"2019-06-01 11:00:02"	"2019-06-01 11:00:02"		KVB	Aurangavbad	"App\Employee"	2
7	DEM10200007	46640	3		Cheque	Processed	"2019-05-01 11:00:00"	"2019-05-01 11:00:00"		768932	KVB	Mumbai	"App\Employee"	3
8	DEM10200008	46640	3		NEFT	Realized	"2019-01-01 11:00:00"	"2019-01-01 11:00:00"	"2019-01-01 11:00:00"		BOB	Kolkatta	"App\Employee"	4
9	DEM10200009	46640	3		NEFT	Realized	"2019-02-01 11:00:00"	"2019-02-01 11:00:00"	"2019-02-01 11:00:00"		KVB	Chennai	"App\Agent"	4
10	DEM102000010	46640	3		Debit	Realized	"2019-03-01 11:00:01"	"2019-03-01 11:00:01"	"2019-03-01 11:00:01"		KVB	Salem	"App\Agent"	5
11	DEM102000011	277600	4		NEFT	Realized	"2019-04-01 11:00:01"	"2019-04-01 11:00:01"	"2019-04-01 11:00:01"		SBI	Hosur	"App\Employee"	5
12	DEM102000012	277600	4		Adjustment	Realized	"2019-05-01 11:00:01"	"2019-05-01 11:00:01"	"2019-05-01 11:00:01"		KVB	Namakkal	"App\Employee"	6
13	DEM102000013	1860	5		Cheque	Realized	"2019-06-01 11:00:02"	"2019-06-01 11:00:02"	"2019-06-01 11:00:02"	100141	KVB	Hyderabad	"App\Employee"	7
14	DEM102000014	1860	5		Cash	New	"2019-01-01 11:00:00"				KVB	Aurangavbad	"App\Employee"	8	"NEFT transaction"
15	DEM102000015	1408	6		Cash	Realized	"2019-02-01 11:00:00"	"2019-02-01 11:00:00"	"2019-02-01 11:00:00"		KVB	Aurangavbad	"App\Employee"	4
16	DEM102000016	1408	6		Cash	Realized	"2019-03-01 11:00:01"	"2019-03-01 11:00:01"	"2019-03-01 11:00:01"		KVB	Aurangavbad	"App\Employee"	5
17	DEM102000017	173800	7		Cash	New	"2019-04-01 11:00:01"				KVB	Aurangavbad	"App\Employee"	5
18	DEM102000018	13880	9	5	Cash	Realized	"2019-05-01 11:00:01"	"2019-05-01 11:00:01"	"2019-05-01 11:00:01"		KVB	Aurangavbad	"App\Employee"	6
19	DEM102000019	13880	9		Cash	Realized	"2019-06-01 11:00:02"	"2019-06-01 11:00:02"	"2019-06-01 11:00:02"		KVB	Aurangavbad	"App\Employee"	7
20	DEM102000020	17820	10		Cheque	Processed	"2019-05-01 11:00:00"	"2019-05-01 11:00:00"		768932	KVB	Mumbai	"App\Employee"	8
21	DEM102000021	17820	10		NEFT	Realized	"2019-01-01 11:00:00"	"2019-01-01 11:00:00"	"2019-01-01 11:00:00"		BOB	Kolkatta	"App\Employee"	9	"Refund credit"
22	DEM102000022	25760	11		NEFT	Realized	"2019-02-01 11:00:00"	"2019-02-01 11:00:00"	"2019-02-01 11:00:00"		KVB	Chennai	"App\Agent"	6
23	DEM102000023	25760	11		Debit	Realized	"2019-03-01 11:00:01"	"2019-03-01 11:00:01"	"2019-03-01 11:00:01"		KVB	Salem	"App\Agent"	6
24	DEM102000024	25760	11		NEFT	Realized	"2019-04-01 11:00:01"	"2019-04-01 11:00:01"	"2019-04-01 11:00:01"		SBI	Hosur	"App\Employee"	10	"NEFT transaction"
25	DEM102000025	20820	12		Adjustment	Realized	"2019-05-01 11:00:01"	"2019-05-01 11:00:01"	"2019-05-01 11:00:01"		KVB	Namakkal	"App\Employee"	10
26	DEM102000026	20820	12		Cheque	Realized	"2019-06-01 11:00:02"	"2019-06-01 11:00:02"	"2019-06-01 11:00:02"	100141	KVB	Hyderabad	"App\Employee"	10
27	DEM102000027	20820	12		Cash	New	"2019-01-01 11:00:00"				KVB	Aurangavbad	"App\Employee"	10
28	DEM102000028	14380	13		Cash	Realized	"2019-02-01 11:00:00"	"2019-02-01 11:00:00"	"2019-02-01 11:00:00"		KVB	Aurangavbad	"App\Employee"	11
29	DEM102000029	14380	13		Cash	Realized	"2019-03-01 11:00:01"	"2019-03-01 11:00:01"	"2019-03-01 11:00:01"		KVB	Aurangavbad	"App\Employee"	11
30	DEM102000030	14380	13		Cash	New	"2019-04-01 11:00:01"				KVB	Aurangavbad	"App\Employee"	11
31	DEM102000031	491400	15		Cash	Realized	"2019-05-01 11:00:01"	"2019-05-01 11:00:01"	"2019-05-01 11:00:01"		KVB	Aurangavbad	"App\Employee"	12
32	DEM102000032	245700	16		Cash	Realized	"2019-06-01 11:00:02"	"2019-06-01 11:00:02"	"2019-06-01 11:00:02"		KVB	Aurangavbad	"App\Employee"	12
33	DEM102000033	253200	17		Cheque	Processed	"2019-05-01 11:00:00"	"2019-05-01 11:00:00"		768932	KVB	Mumbai	"App\Employee"	13	"Hand collection"
34	DEM102000034	77100	18		NEFT	Realized	"2019-01-01 11:00:00"	"2019-01-01 11:00:00"	"2019-01-01 11:00:00"		BOB	Kolkatta	"App\Employee"	13
35	DEM102000035	84000	19		NEFT	Realized	"2019-02-01 11:00:00"	"2019-02-01 11:00:00"	"2019-02-01 11:00:00"		KVB	Chennai	"App\Agent"	7
36	DEM102000036	92100	20		Debit	Realized	"2019-03-01 11:00:01"	"2019-03-01 11:00:01"	"2019-03-01 11:00:01"		KVB	Salem	"App\Agent"	7
37	DEM102000037	92100	20		NEFT	Realized	"2019-04-01 11:00:01"	"2019-04-01 11:00:01"	"2019-04-01 11:00:01"		SBI	Hosur	"App\Employee"	14
38	DEM102000038	104100	21		Adjustment	Realized	"2019-05-01 11:00:01"	"2019-05-01 11:00:01"	"2019-05-01 11:00:01"		KVB	Namakkal	"App\Employee"	14
39	DEM102000039	104100	21		Cheque	Realized	"2019-06-01 11:00:02"	"2019-06-01 11:00:02"	"2019-06-01 11:00:02"	100141	KVB	Hyderabad	"App\Employee"	14
40	DEM102000040	214800	22		Cash	New	"2019-01-01 11:00:00"				KVB	Aurangavbad	"App\Employee"	15
41	DEM102000041	214800	22		Cash	Realized	"2019-02-01 11:00:00"	"2019-02-01 11:00:00"	"2019-02-01 11:00:00"		KVB	Aurangavbad	"App\Employee"	15
42	DEM102000042	18720	23		Cash	Realized	"2019-03-01 11:00:01"	"2019-03-01 11:00:01"	"2019-03-01 11:00:01"		KVB	Aurangavbad	"App\Employee"	15
43	DEM102000043	18720	23		Cash	New	"2019-04-01 11:00:01"				KVB	Aurangavbad	"App\Employee"	16
44	DEM102000044	96600	24		Cash	Realized	"2019-05-01 11:00:01"	"2019-05-01 11:00:01"	"2019-05-01 11:00:01"		KVB	Aurangavbad	"App\Employee"	16
45	DEM102000045	96600	24		Cash	Realized	"2019-06-01 11:00:02"	"2019-06-01 11:00:02"	"2019-06-01 11:00:02"		KVB	Aurangavbad	"App\Employee"	16
46	DEM102000046	22320	25		Cheque	Processed	"2019-05-01 11:00:00"	"2019-05-01 11:00:00"		768932	KVB	Mumbai	"App\Employee"	17	"Bus stand collection"
47	DEM102000047	22320	25		NEFT	Realized	"2019-01-01 11:00:00"	"2019-01-01 11:00:00"	"2019-01-01 11:00:00"		BOB	Kolkatta	"App\Employee"	17
48	DEM102000048	223200	26		NEFT	Realized	"2019-02-01 11:00:00"	"2019-02-01 11:00:00"	"2019-02-01 11:00:00"		KVB	Chennai	"App\Agent"	8
49	DEM102000049	223200	26		Debit	Realized	"2019-03-01 11:00:01"	"2019-03-01 11:00:01"	"2019-03-01 11:00:01"		KVB	Salem	"App\Agent"	8
50	DEM102000050	223200	26		NEFT	Realized	"2019-04-01 11:00:01"	"2019-04-01 11:00:01"	"2019-04-01 11:00:01"		SBI	Hosur	"App\Employee"	18
