id	alt_id	branch_id	prefix	name	gender	dob	email	mobile_primary	mobile_alternate	address_present	city_present	state_present	district_present	pincode_present	address_permanent	city_permanent	state_permanent	district_permanent	pincode_permanent	pan_no	ration_no	aadhaar_no	father_name	mother_name	spouse_name	monthly_income	source_of_income	gst_no	Managingenrollments	Introducedenrollments	Relationships	EmployeeScore	Enrollments	Introductions	STATUS
2	NZS-04084853	2	Miss	"Heena Bhatnagar"	Female	1994-06-05	binita32@hotmail.com	919440498908	918893526630	"55,Dinesh Gunj,"	Trichy	Goa	"Arunachal Pradesh"	544149	"78,Charandeep Gunj,"	Patna	Jharkhand	Chandigarh	559228	OZWDK0782M	QNB921032327	42792825	"Elias Das"	"Hira Borde"	"Nupur Ram Kuruvilla"	48000		30KMHMR7011JKTK	356	1201	2	5	4		Active
3	DII-93435930	2	Dr.	"Jagruti Aayushman Virk"	Female	1997-07-07	kushal.wali@krishnamurthy.org	9678418926	919031683515	"94,Manoj Apartments,Bijoy Nagar"	Ahmedabad	Meghalaya	Jharkhand	302609	24,Hinjewadi,	Mumbai	Sikkim	Maharashtra	319825	FEFNH6783I	RGQ552521303	94549145	"Shashank Subramanian"	"Urvashi Virk"	"Nagma Shukla"	100000		96OOYOH0858IJMT	589	1366	5	4	5		Active
4	JDV-08345969	2	Prof.	"Krishna Pratap Raman"	Male	1989-05-27	rupesh.nigam@krishnan.co.in	7080433659	918367696075	"40,Satishwar Apartments,Lakshmi Nagar"	Vadodara	"Himachal Pradesh"	Mizoram	154498	"30,Nayan Apartments,Maya Gunj"	Ranchi	Bihar	Jharkhand	138944	SJBUH6506O	AXK843657628	54394833	"Anand De"	"Namita Ahuja"	"Naina Korpal"	24000		04ZUHIY0073STCF	685	1530	6	3	6		Active
5	RXH-32937772	1	Mr.	"Lalit Chandra Kata"	Male	1985-03-15	banerjee.naval@desai.com	9356144471	8868738343	"19,Iqbal Apartments,Hadapsar"	Chennai	Jharkhand	Rajasthan	252093	"30,Kalyan Chowk,"	Panaji	Bihar	Gujarat	589741	YMNIT1877C	ZYZ595071669	2257453	"Nayan Ratta"	"Chhavi Agarwal"	"Sukriti Banerjee"	53000		28SQQYI1006DBGR	872	1695	8	2	9		Active
6	JZF-09441197	3	Prof.	"Pamela Mand"	Female	1991-05-18	lall.padama@johal.com	9819728098	917345372353	82,Sodala,	Pondicherry	"Jammu and Kashmir"	"Dadra and Nagar Haveli"	317837	"90,Richa Gunj,"	Jammu	Delhi	Jharkhand	542146	HZYWP2482V	VAU756318295	975587	"Mohan Kara"	"Runjhun Tandon"	"Namita Date"	16000		39EWMIX3461DDJV	1037	1859	4	1	7		Active
7	RWN-34884358	3	Prof.	"Laveena Lata"	Female	1976-03-05	bmahadeo@yahoo.com	9236944488	917035618640	"37,Mustafa Gunj,"	Warangal	"Andaman and Nicobar Islands"	Mizoram	472490	"82,Shweta Society,Nishi Garh"	Noida	"Madhya Pradesh"	Nagaland	550125	ZJBQG3029B	ZPI058833015	9447592	"Mahmood Singh Karnik"	"Nupur Ram Kuruvilla"	"Nishita Rana"	87000		58JKQVS6860IBFL	1201	2024	6	5	2		Active
8	UHH-15264739	3	Prof.	"Sharad Bhai Divan"	Male	1989-05-16	csarkar@doshi.com	7239906903	7631863303	"97,Kartik Society,Dadar"	Pune	"Dadra and Nagar Haveli"	Uttarakhand	317508	"19,Akhil Gunj,"	Chennai	"Arunachal Pradesh"	"Andaman and Nicobar Islands"	209955	TPUCL7324V	FTS475366544	83781318	"Fardeen Ajay Misra"	"Nagma Shukla"	"Sushmita Lala"	76000		00HWCKR3261OZYT	1366	2188	4	4	5		Active
9	ILS-37746380	3	Prof.	"Abdul Ram Bhavsar"	Male	1997-02-18	qabeel.sangha@bhagat.in	9625221736	8153796924	"78,Himani Villas,Malad"	Gangtok	Tripura	Uttarakhand	487019	"12,Nakul Garh,"	Alwar	Manipur	Lakshadweep	173915	BAALE2619N	ATT711216804	96207659	"Himanshu Subhash Mammen"	"Naina Korpal"	"Hira Borde"	94000		78YZRBK0541XWEG	1530	356	1	3	6		Active
10	YXW-07136302	3	Mr.	"Gaurav Brar"	Male	1995-10-31	sumit.parmer@nazareth.com	7307304363	7734569982	"26,Rosey Villas,Chinchwad"	Srinagar	TamilNadu	Jharkhand	491140	"50,Amolika Society,Upasana Nagar"	NewDelhi	Haryana	"Himachal Pradesh"	366723	KMZDU9023Q	SYW241151340	93213642	"Mohit Lal Bajaj"	"Sukriti Banerjee"	"Urvashi Virk"	98000		12KFEEE2216HJVA	1695	589	1	2	9		Active
11	JPC-08907543	3	Prof.	"Saurabh Mohit Bhargava"	Male	1975-03-08	madan.aditi@kalita.in	919442399703	919940478227	"81,Kabeer Society,Ambika Pur"	Alwar	Tripura	Maharashtra	265879	"28,Gajendra Villas,Hinjewadi"	Mumbai	Chandigarh	WestBengal	482673	FEACU4886R	CHN543887075	43195158	"Pranay Buch"	"Namita Date"	"Namita Ahuja"	34000		55CPOCV6214FFAR	1859	685	4	1	8		Active
12	KOF-62522493	4	Prof.	"Uday Pratap Setty"	Male	1967-06-07	aggarwal.ehsaan@yahoo.com	918949484319	919935517028	"61,Wafa Chowk,"	DehraDun	Tripura	Kerala	422237	"25,Geetanjali Nagar,"	Gurgaon	"Arunachal Pradesh"	Chhattisgarh	234853	BUNMX8816A	GAL849655572	33864030	"Ratan Gandhi"	"Nishita Rana"	"Chhavi Agarwal"	28000		44ECWSK9368QHMN	2024	872	2	2	4		Active
13	HFG-37698369	4	Mrs.	"Hina Javed Varkey"	Female	1972-07-27	yganesh@rediffmail.com	7581744938	918632276459	"44,Padmini Chowk,"	Surat	"Andhra Pradesh"	Assam	501769	"78,Balaji Villas,Harmada"	Pune	Kerala	Puducherry	294883	PWPAM7679L	BXD062664271	26101442	"Umesh Bose"	"Sushmita Lala"	"Runjhun Tandon"	47000		02CEWZF1657RUAN	2188	1037	3	1	1		Active
14	AIL-24431876	1	Mr	Demo	Male	1980-01-01	demo@rosca.digital	87654651652	216854651655																										Active
15	HFG-37699563	1	Mr.	"Victor Messi"	Male	1985-01-05	victor@messi.com	54545165132	14415465463	"14, nawab road"	Hyderabad	Telengana	Telengana	54321	"14, nawab road"	Hyderabad	Telengana	Telengana	6542	GFKEN6889	KGIE656532	2514541	Dorem	Lorilal	Vladmir	56000		8743HGCHG78	0	2	2	2	2		Removed
16	RXH-68735132	2	Ms.	Ashutosh	Male	1987-02-25	ashutosh@sim.com	55464651230	854516854351	"15, st paul street - 30"	Bhubaneshwar	Odisha	Bhubaneshwar	5465	"15, st paul street - 30"	Bhubaneshwar	Odisha	Bhubaneshwar	24211	GFUHV874	YTFJHB876	7835665	Vlad	Putin	Moroc	69000		21HGF876J5	0	2	2	2	2		Removed
17	ULA-6532032	3	Ms.	"Ronald Ryan"	Male	1995-09-07	ronald@ryan.com	98784516521	5454245413521	"3, lawn road - 30"	Kolkata	"West Bengal"	Kolkata	98225	"3, lawn road - 30"	Kolkata	"West Bengal"	Kolkata	216541	HGFHG8764	BGC987643	456732	Ceylo	Xylo	Feola	88000		564JHG86	0	2	2	2	2		Removed
18	IND-65431213	4	Dr.	"Mukesh Agarwal"	Male	1985-01-05	mukesh@agarwal.com	9875613216	321684321361	"18, Milan street - 30"	Kochi	Kerala	Kochi	6516	"18, Milan street - 30"	Kochi	Kerala	Kochi	895321	GVKH78876	HTFUC9876876	6742	"Fernando Torres"	Neymar	"David Villa"	48000		2562568NHHGV	0	2	2	2	2		Removed
