id	format	chit_value	no_of_months	no_of_members	registration_fees	GROUPS
1	5000(20M)	5000	20	20	0	368
2	50000(20M)	50000	20	20	50	324
3	100000(20M)	100000	20	20	100	898
4	200000(20M)	200000	20	20	200	354
5	300000(20M)	300000	20	20	300	66
6	400000(20M)	400000	20	20	400	3
7	500000(20M)	500000	20	20	500	247
8	2000000(20M)	2000000	20	20	2000	16
9	2500000(20M)	2500000	20	20	2500	32
10	3000000(20M)	3000000	20	20	3000	0
11	1000000(20M)	1000000	20	20	1000	61
12	5000000(20M)	5000000	20	20	5000	6
13	500000(25M)	500000	25	25	500	103
14	100000(25M)	100000	25	25	0	13
15	2500000(25M)	2500000	25	25	2500	8
16	150000(20M)	150000	20	20	150	5
17	5000000(40M)	5000000	40	40	7000	10
18	10000000(40M)	10000000	40	40	14000	5
19	100000(25M)	100000	25	25	100	146
20	1000000(25M)	1000000	25	25	1000	468
21	200000(25M)	200000	25	25	200	55
22	10000000(20M)	10000000	20	20	7000	2
23	300000(25M)	300000	25	25	0	4
24	5000000(25M)	5000000	25	25	5000	3
